%YAML 1.1
%TAG !u! tag:unity3d.com,2011:
--- !u!1953259897 &8574412962073106934
TerrainLayer:
  m_ObjectHideFlags: 0
  m_CorrespondingSourceObject: {fileID: 0}
  m_PrefabInstance: {fileID: 0}
  m_PrefabAsset: {fileID: 0}
  m_Name: Gaia_-20220301-113325_5
  m_DiffuseTexture: {fileID: 2800000, guid: 86dec3e434b4b5948a30b2bc0bb4b627, type: 3}
  m_NormalMapTexture: {fileID: 2800000, guid: 7c973ca0e7e2e8842901012d96aaa40a, type: 3}
  m_MaskMapTexture: {fileID: 2800000, guid: 0893766783578c04b8064aa3699a96f7, type: 3}
  m_TileSize: {x: 16, y: 16}
  m_TileOffset: {x: 0, y: 0}
  m_Specular: {r: 0, g: 0, b: 0, a: 0}
  m_Metallic: 0
  m_Smoothness: 0
  m_NormalScale: 1.07
  m_DiffuseRemapMin: {x: 0, y: 0, z: 0, w: 0}
  m_DiffuseRemapMax: {x: 1, y: 1, z: 1, w: 1}
  m_MaskMapRemapMin: {x: 0, y: 0, z: 0, w: 0}
  m_MaskMapRemapMax: {x: 1, y: 1, z: 1, w: 1}
