%YAML 1.1
%TAG !u! tag:unity3d.com,2011:
--- !u!114 &11400000
MonoBehaviour:
  m_ObjectHideFlags: 0
  m_CorrespondingSourceObject: {fileID: 0}
  m_PrefabInstance: {fileID: 0}
  m_PrefabAsset: {fileID: 0}
  m_GameObject: {fileID: 0}
  m_Enabled: 1
  m_EditorHideFlags: 0
  m_Script: {fileID: 11500000, guid: 609abd1c2a4948a42b16c3cffb5d281f, type: 3}
  m_Name: RTC_Settings
  m_EditorClassIdentifier: 
  toolbarSelectedIndex: 0
  overrideFixedTimeStep: 1
  fixedTimeStep: 0.02
  maxAngularVelocity: 6
  controllerType: 0
  enableReWired: 0
  gasInput: Vertical
  steerInput: Horizontal
  mainGunXInput: Mouse X
  mainGunYInput: Mouse Y
  handbrakeKB: 32
  startEngineKB: 105
  headlightsKB: 104
  changeCameraKB: 99
  fireKB: 323
  changeAmmunation: 102
  runEngineAtAwake: 1
  autoReset: 1
  uiType: 0
  mobileControllerType: 0
  UIButtonSensitivity: 2
  UIButtonGravity: 10
  gyroSensitivity: 2
  useLightsAsVertexLights: 0
  setTagsAndLayers: 1
  RTCLayer: RTC
  RTCTag: Player
  tagAllChildrenGameobjects: 1
  mainCamera: {fileID: 193588, guid: e7acbf53db0ed384fbfb137980137170, type: 3}
  gunCamera: {fileID: 1000012494478066, guid: 3e7973e29c6050e4ea55473683636c6a, type: 3}
  exhaustGas: {fileID: 100000, guid: 163117f37dde6804ba0e835ae8e1c782, type: 3}
  headLight: {fileID: 146832, guid: 0ae5615374359d54ca8999bc74002de4, type: 3}
  brakeLight: {fileID: 136378, guid: 9012c6221ffd9a14aab50a80e7c01598, type: 3}
  RTCCanvas: {fileID: 187594, guid: 427a7510ca915f342b3163b914ddd08e, type: 3}
  foldProjectSettings: 1
  foldControllerSettings: 1
  foldUISettings: 1
  foldWheelPhysics: 1
  foldSFX: 1
  foldOptimization: 1
  foldTagsAndLayers: 1
