%YAML 1.1
%TAG !u! tag:unity3d.com,2011:
--- !u!114 &11400000
MonoBehaviour:
  m_ObjectHideFlags: 0
  m_CorrespondingSourceObject: {fileID: 0}
  m_PrefabInstance: {fileID: 0}
  m_PrefabAsset: {fileID: 0}
  m_GameObject: {fileID: 0}
  m_Enabled: 1
  m_EditorHideFlags: 0
  m_Script: {fileID: 11500000, guid: f5a37e1a4392e7648bcafae0e3b80165, type: 3}
  m_Name: PW_Detail_LawnGrass_Patch_03
  m_EditorClassIdentifier: 
  m_data:
    m_name: PW_Detail_LawnGrass_Patch_03
    m_mesh: {fileID: -8297158914866350079, guid: 7fcec314f14364e4c8ba5072b837f1a9, type: 3}
    m_mat: {fileID: 2100000, guid: bdf6a7428a8c48d46984004d2d9988b9, type: 2}
    m_sourceDataType: 0
    m_colorA: {r: 0.9528302, g: 0.8107787, b: 0.17528482, a: 0.9019608}
    m_colorB: {r: 0.5, g: 0.5, b: 0.5, a: 0}
    m_colorTransition:
      serializedVersion: 2
      m_Curve:
      - serializedVersion: 3
        time: 0
        value: 0
        inSlope: 0
        outSlope: 0
        tangentMode: 0
        weightedMode: 0
        inWeight: 0
        outWeight: 0
      - serializedVersion: 3
        time: 1
        value: 1
        inSlope: 0
        outSlope: 0
        tangentMode: 0
        weightedMode: 0
        inWeight: 0
        outWeight: 0
      m_PreInfinity: 2
      m_PostInfinity: 2
      m_RotationOrder: 4
    m_colorRandomization: 0.7
    m_disableDraw: 0
    m_drawBias: 1
    m_startFadeDistance: 10
    m_endFadeDistance: 20
    m_shadowMode: 2
    m_randomSeed: 3
    m_sourceDataIndex: 0
    m_density: 174
    m_maxJitter: 1
    m_scaleRangeMin: 0.75
    m_scaleRangeMax: 2
    m_scaleByAlpha:
      serializedVersion: 2
      m_Curve:
      - serializedVersion: 3
        time: 0
        value: 0
        inSlope: 1
        outSlope: 1
        tangentMode: 34
        weightedMode: 0
        inWeight: 0
        outWeight: 0
      - serializedVersion: 3
        time: 1
        value: 1
        inSlope: 1
        outSlope: 1
        tangentMode: 34
        weightedMode: 0
        inWeight: 0
        outWeight: 0
      m_PreInfinity: 2
      m_PostInfinity: 2
      m_RotationOrder: 4
    m_forwardAngleBias: 249
    m_randomRotationRange: 1
    m_useAdvancedRotations: 0
    m_alignToUp: 0
    m_slopeType: 0
    m_scaleBySlope:
      serializedVersion: 2
      m_Curve:
      - serializedVersion: 3
        time: 0
        value: 0
        inSlope: 1
        outSlope: 1
        tangentMode: 34
        weightedMode: 0
        inWeight: 0
        outWeight: 0
      - serializedVersion: 3
        time: 1
        value: 1
        inSlope: 1
        outSlope: 1
        tangentMode: 34
        weightedMode: 0
        inWeight: 0
        outWeight: 0
      m_PreInfinity: 2
      m_PostInfinity: 2
      m_RotationOrder: 4
    m_alignForwardToSlope: 0
    m_alphaThreshold: 1
    m_useNoise: 1
    m_noiseScale: 0.05
    m_noiseMaskContrast: 6.29
    m_noiseMaskOffset: 0.1
    m_invertNoise: 0
    m_useHeight: 0
    m_scaleByHeight:
      serializedVersion: 2
      m_Curve:
      - serializedVersion: 3
        time: 1
        value: 1
        inSlope: 0
        outSlope: 0
        tangentMode: 0
        weightedMode: 0
        inWeight: 0
        outWeight: 0
      m_PreInfinity: 2
      m_PostInfinity: 2
      m_RotationOrder: 4
    m_useSlope: 0
    m_drawCPUSpawnLocations: 0
    m_debugColor: {r: 0.117145196, g: 0.86636364, b: 0.48548025, a: 1}
    m_debugCellSize: 0.54285717
