%YAML 1.1
%TAG !u! tag:unity3d.com,2011:
--- !u!114 &11400000
MonoBehaviour:
  m_ObjectHideFlags: 0
  m_CorrespondingSourceObject: {fileID: 0}
  m_PrefabInstance: {fileID: 0}
  m_PrefabAsset: {fileID: 0}
  m_GameObject: {fileID: 0}
  m_Enabled: 1
  m_EditorHideFlags: 0
  m_Script: {fileID: 11500000, guid: e251860fcd970734c9f14ebd98a146c3, type: 3}
  m_Name: GS-20220301 - 113227
  m_EditorClassIdentifier: 
  m_name: Session 20220301-113227
  m_description: 'Rocking out at Creativity Central!


    If you like Gaia please
    consider rating it :)'
  m_previewImage: {fileID: 0}
  m_dateCreated: 01/03/2022 11:32:27
  m_terrainWidth: 512
  m_terrainDepth: 512
  m_terrainHeight: 512
  m_seaLevel: 12.5
  m_spawnDensity: 1
  m_isLocked: 0
  m_previewImageBytes: 
  m_previewImageWidth: 0
  m_previewImageHeight: 0
  m_operations:
  - m_description: Clear World
    m_operationType: 10
    m_isActive: 1
    m_affectedTerrainNames: []
    m_operationDateTime: 01/03/2022 11:33:24
    scriptableObjectAssetGUID: 
    m_isFoldedOut: 0
    sessionPlaybackState: 1
    m_terrainsFoldedOut: 0
    m_serializedExternalAction: 
  - m_description: 'Creating World: 1 x 1 tiles, tile size: 512'
    m_operationType: 0
    m_isActive: 1
    m_affectedTerrainNames: []
    m_operationDateTime: 01/03/2022 11:33:24
    scriptableObjectAssetGUID: 0b51adcb3d36ad244ac38eb4327a06da
    m_isFoldedOut: 0
    sessionPlaybackState: 1
    m_terrainsFoldedOut: 0
    m_serializedExternalAction: 
  - m_description: Spawning - Multiple Spawners (10)
    m_operationType: 7
    m_isActive: 1
    m_affectedTerrainNames:
    - Terrain_0_0-20220301 - 113324
    m_operationDateTime: 01/03/2022 11:35:25
    scriptableObjectAssetGUID: 8cf1b6143ea55b94292fc58fb751c380
    m_isFoldedOut: 0
    sessionPlaybackState: 1
    m_terrainsFoldedOut: 0
    m_serializedExternalAction: 
  m_terrainMinMaxCache:
  - guid: 118dfb3e8b193434692fc3ecadfa5d6e
    isWorldmap: 0
    recalculate: 0
    min: 0
    max: 32.703625
  - guid: Worldmap
    isWorldmap: 1
    recalculate: 0
    min: 0
    max: 31.184109
  m_bakedMaskCacheEntries: []
  m_worldBiomeMaskSettings: {fileID: 0}
