%YAML 1.1
%TAG !u! tag:unity3d.com,2011:
--- !u!1 &324718337910322511
GameObject:
  m_ObjectHideFlags: 0
  m_CorrespondingSourceObject: {fileID: 0}
  m_PrefabInstance: {fileID: 0}
  m_PrefabAsset: {fileID: 0}
  serializedVersion: 6
  m_Component:
  - component: {fileID: 2131124990257274816}
  - component: {fileID: 4767953358773472421}
  - component: {fileID: 6418585761246081713}
  m_Layer: 13
  m_Name: PW_Tree_Dead_03_01_LOD0
  m_TagString: PW - Nature
  m_Icon: {fileID: 0}
  m_NavMeshLayer: 0
  m_StaticEditorFlags: 90
  m_IsActive: 1
--- !u!4 &2131124990257274816
Transform:
  m_ObjectHideFlags: 0
  m_CorrespondingSourceObject: {fileID: 0}
  m_PrefabInstance: {fileID: 0}
  m_PrefabAsset: {fileID: 0}
  m_GameObject: {fileID: 324718337910322511}
  m_LocalRotation: {x: 0, y: -0, z: -0, w: 1}
  m_LocalPosition: {x: -0, y: 0, z: 0}
  m_LocalScale: {x: 1, y: 1, z: 1}
  m_Children: []
  m_Father: {fileID: 5071330078189326275}
  m_RootOrder: 0
  m_LocalEulerAnglesHint: {x: 0, y: 0, z: 0}
--- !u!33 &4767953358773472421
MeshFilter:
  m_ObjectHideFlags: 0
  m_CorrespondingSourceObject: {fileID: 0}
  m_PrefabInstance: {fileID: 0}
  m_PrefabAsset: {fileID: 0}
  m_GameObject: {fileID: 324718337910322511}
  m_Mesh: {fileID: 5027890580530253649, guid: fdf9d3b1d07952e4eb05e954fc4421c0, type: 3}
--- !u!23 &6418585761246081713
MeshRenderer:
  m_ObjectHideFlags: 0
  m_CorrespondingSourceObject: {fileID: 0}
  m_PrefabInstance: {fileID: 0}
  m_PrefabAsset: {fileID: 0}
  m_GameObject: {fileID: 324718337910322511}
  m_Enabled: 1
  m_CastShadows: 1
  m_ReceiveShadows: 1
  m_DynamicOccludee: 1
  m_StaticShadowCaster: 0
  m_MotionVectors: 1
  m_LightProbeUsage: 1
  m_ReflectionProbeUsage: 1
  m_RayTracingMode: 2
  m_RayTraceProcedural: 0
  m_RenderingLayerMask: 1
  m_RendererPriority: 0
  m_Materials:
  - {fileID: 2100000, guid: 9414632d105f7f045a15dc582b97f108, type: 2}
  m_StaticBatchInfo:
    firstSubMesh: 0
    subMeshCount: 0
  m_StaticBatchRoot: {fileID: 0}
  m_ProbeAnchor: {fileID: 0}
  m_LightProbeVolumeOverride: {fileID: 0}
  m_ScaleInLightmap: 1
  m_ReceiveGI: 1
  m_PreserveUVs: 0
  m_IgnoreNormalsForChartDetection: 0
  m_ImportantGI: 0
  m_StitchLightmapSeams: 1
  m_SelectedEditorRenderState: 3
  m_MinimumChartSize: 4
  m_AutoUVMaxDistance: 0.5
  m_AutoUVMaxAngle: 89
  m_LightmapParameters: {fileID: 0}
  m_SortingLayerID: 0
  m_SortingLayer: 0
  m_SortingOrder: 0
  m_AdditionalVertexStreams: {fileID: 0}
--- !u!1 &2788417963891080224
GameObject:
  m_ObjectHideFlags: 0
  m_CorrespondingSourceObject: {fileID: 0}
  m_PrefabInstance: {fileID: 0}
  m_PrefabAsset: {fileID: 0}
  serializedVersion: 6
  m_Component:
  - component: {fileID: 3878817846593013705}
  - component: {fileID: 7814512697438721915}
  - component: {fileID: 7834450935239888860}
  m_Layer: 13
  m_Name: PW_Tree_Dead_03_01_LOD3
  m_TagString: PW - Nature
  m_Icon: {fileID: 0}
  m_NavMeshLayer: 0
  m_StaticEditorFlags: 90
  m_IsActive: 1
--- !u!4 &3878817846593013705
Transform:
  m_ObjectHideFlags: 0
  m_CorrespondingSourceObject: {fileID: 0}
  m_PrefabInstance: {fileID: 0}
  m_PrefabAsset: {fileID: 0}
  m_GameObject: {fileID: 2788417963891080224}
  m_LocalRotation: {x: 0, y: -0, z: -0, w: 1}
  m_LocalPosition: {x: -0, y: 0, z: 0}
  m_LocalScale: {x: 1, y: 1, z: 1}
  m_Children: []
  m_Father: {fileID: 5071330078189326275}
  m_RootOrder: 3
  m_LocalEulerAnglesHint: {x: 0, y: 0, z: 0}
--- !u!33 &7814512697438721915
MeshFilter:
  m_ObjectHideFlags: 0
  m_CorrespondingSourceObject: {fileID: 0}
  m_PrefabInstance: {fileID: 0}
  m_PrefabAsset: {fileID: 0}
  m_GameObject: {fileID: 2788417963891080224}
  m_Mesh: {fileID: -7467558290714255106, guid: fdf9d3b1d07952e4eb05e954fc4421c0, type: 3}
--- !u!23 &7834450935239888860
MeshRenderer:
  m_ObjectHideFlags: 0
  m_CorrespondingSourceObject: {fileID: 0}
  m_PrefabInstance: {fileID: 0}
  m_PrefabAsset: {fileID: 0}
  m_GameObject: {fileID: 2788417963891080224}
  m_Enabled: 1
  m_CastShadows: 1
  m_ReceiveShadows: 1
  m_DynamicOccludee: 1
  m_StaticShadowCaster: 0
  m_MotionVectors: 1
  m_LightProbeUsage: 1
  m_ReflectionProbeUsage: 1
  m_RayTracingMode: 2
  m_RayTraceProcedural: 0
  m_RenderingLayerMask: 1
  m_RendererPriority: 0
  m_Materials:
  - {fileID: 2100000, guid: 9414632d105f7f045a15dc582b97f108, type: 2}
  m_StaticBatchInfo:
    firstSubMesh: 0
    subMeshCount: 0
  m_StaticBatchRoot: {fileID: 0}
  m_ProbeAnchor: {fileID: 0}
  m_LightProbeVolumeOverride: {fileID: 0}
  m_ScaleInLightmap: 1
  m_ReceiveGI: 1
  m_PreserveUVs: 0
  m_IgnoreNormalsForChartDetection: 0
  m_ImportantGI: 0
  m_StitchLightmapSeams: 1
  m_SelectedEditorRenderState: 3
  m_MinimumChartSize: 4
  m_AutoUVMaxDistance: 0.5
  m_AutoUVMaxAngle: 89
  m_LightmapParameters: {fileID: 0}
  m_SortingLayerID: 0
  m_SortingLayer: 0
  m_SortingOrder: 0
  m_AdditionalVertexStreams: {fileID: 0}
--- !u!1 &5251189703056237101
GameObject:
  m_ObjectHideFlags: 0
  m_CorrespondingSourceObject: {fileID: 0}
  m_PrefabInstance: {fileID: 0}
  m_PrefabAsset: {fileID: 0}
  serializedVersion: 6
  m_Component:
  - component: {fileID: 4251537955259570496}
  - component: {fileID: 6126396572856476670}
  - component: {fileID: 1720509337061140837}
  m_Layer: 13
  m_Name: PW_Tree_Dead_03_01_LOD1
  m_TagString: PW - Nature
  m_Icon: {fileID: 0}
  m_NavMeshLayer: 0
  m_StaticEditorFlags: 90
  m_IsActive: 1
--- !u!4 &4251537955259570496
Transform:
  m_ObjectHideFlags: 0
  m_CorrespondingSourceObject: {fileID: 0}
  m_PrefabInstance: {fileID: 0}
  m_PrefabAsset: {fileID: 0}
  m_GameObject: {fileID: 5251189703056237101}
  m_LocalRotation: {x: 0, y: -0, z: -0, w: 1}
  m_LocalPosition: {x: -0, y: 0, z: 0}
  m_LocalScale: {x: 1, y: 1, z: 1}
  m_Children: []
  m_Father: {fileID: 5071330078189326275}
  m_RootOrder: 1
  m_LocalEulerAnglesHint: {x: 0, y: 0, z: 0}
--- !u!33 &6126396572856476670
MeshFilter:
  m_ObjectHideFlags: 0
  m_CorrespondingSourceObject: {fileID: 0}
  m_PrefabInstance: {fileID: 0}
  m_PrefabAsset: {fileID: 0}
  m_GameObject: {fileID: 5251189703056237101}
  m_Mesh: {fileID: 773605907863210953, guid: fdf9d3b1d07952e4eb05e954fc4421c0, type: 3}
--- !u!23 &1720509337061140837
MeshRenderer:
  m_ObjectHideFlags: 0
  m_CorrespondingSourceObject: {fileID: 0}
  m_PrefabInstance: {fileID: 0}
  m_PrefabAsset: {fileID: 0}
  m_GameObject: {fileID: 5251189703056237101}
  m_Enabled: 1
  m_CastShadows: 1
  m_ReceiveShadows: 1
  m_DynamicOccludee: 1
  m_StaticShadowCaster: 0
  m_MotionVectors: 1
  m_LightProbeUsage: 1
  m_ReflectionProbeUsage: 1
  m_RayTracingMode: 2
  m_RayTraceProcedural: 0
  m_RenderingLayerMask: 1
  m_RendererPriority: 0
  m_Materials:
  - {fileID: 2100000, guid: 9414632d105f7f045a15dc582b97f108, type: 2}
  m_StaticBatchInfo:
    firstSubMesh: 0
    subMeshCount: 0
  m_StaticBatchRoot: {fileID: 0}
  m_ProbeAnchor: {fileID: 0}
  m_LightProbeVolumeOverride: {fileID: 0}
  m_ScaleInLightmap: 1
  m_ReceiveGI: 1
  m_PreserveUVs: 0
  m_IgnoreNormalsForChartDetection: 0
  m_ImportantGI: 0
  m_StitchLightmapSeams: 1
  m_SelectedEditorRenderState: 3
  m_MinimumChartSize: 4
  m_AutoUVMaxDistance: 0.5
  m_AutoUVMaxAngle: 89
  m_LightmapParameters: {fileID: 0}
  m_SortingLayerID: 0
  m_SortingLayer: 0
  m_SortingOrder: 0
  m_AdditionalVertexStreams: {fileID: 0}
--- !u!1 &8087235739683421648
GameObject:
  m_ObjectHideFlags: 0
  m_CorrespondingSourceObject: {fileID: 0}
  m_PrefabInstance: {fileID: 0}
  m_PrefabAsset: {fileID: 0}
  serializedVersion: 6
  m_Component:
  - component: {fileID: 5071330078189326275}
  - component: {fileID: 5625951685692135687}
  - component: {fileID: 2784553366283158568}
  m_Layer: 13
  m_Name: PW_Tree_Dead_03_Fallen
  m_TagString: PW - Nature
  m_Icon: {fileID: 0}
  m_NavMeshLayer: 0
  m_StaticEditorFlags: 90
  m_IsActive: 1
--- !u!4 &5071330078189326275
Transform:
  m_ObjectHideFlags: 0
  m_CorrespondingSourceObject: {fileID: 0}
  m_PrefabInstance: {fileID: 0}
  m_PrefabAsset: {fileID: 0}
  m_GameObject: {fileID: 8087235739683421648}
  m_LocalRotation: {x: 0, y: 0, z: 0, w: 1}
  m_LocalPosition: {x: -0, y: 0, z: 0}
  m_LocalScale: {x: 1, y: 1, z: 1}
  m_Children:
  - {fileID: 2131124990257274816}
  - {fileID: 4251537955259570496}
  - {fileID: 8638114658221875777}
  - {fileID: 3878817846593013705}
  - {fileID: 3572774827136357566}
  - {fileID: 4486693917476101835}
  - {fileID: 7701470098870996756}
  m_Father: {fileID: 0}
  m_RootOrder: 0
  m_LocalEulerAnglesHint: {x: 0, y: 0, z: 0}
--- !u!205 &5625951685692135687
LODGroup:
  m_ObjectHideFlags: 0
  m_CorrespondingSourceObject: {fileID: 0}
  m_PrefabInstance: {fileID: 0}
  m_PrefabAsset: {fileID: 0}
  m_GameObject: {fileID: 8087235739683421648}
  serializedVersion: 2
  m_LocalReferencePoint: {x: 4.867326, y: 0.38861054, z: 0.043220878}
  m_Size: 10.154818
  m_FadeMode: 0
  m_AnimateCrossFading: 1
  m_LastLODIsBillboard: 0
  m_LODs:
  - screenRelativeHeight: 0.9907865
    fadeTransitionWidth: 0
    renderers:
    - renderer: {fileID: 6418585761246081713}
  - screenRelativeHeight: 0.91051424
    fadeTransitionWidth: 0
    renderers:
    - renderer: {fileID: 1720509337061140837}
  - screenRelativeHeight: 0.3997937
    fadeTransitionWidth: 0
    renderers:
    - renderer: {fileID: 6380434207077823107}
  - screenRelativeHeight: 0.022730477
    fadeTransitionWidth: 0
    renderers:
    - renderer: {fileID: 7834450935239888860}
  m_Enabled: 1
--- !u!136 &2784553366283158568
CapsuleCollider:
  m_ObjectHideFlags: 0
  m_CorrespondingSourceObject: {fileID: 0}
  m_PrefabInstance: {fileID: 0}
  m_PrefabAsset: {fileID: 0}
  m_GameObject: {fileID: 8087235739683421648}
  m_Material: {fileID: 0}
  m_IsTrigger: 0
  m_Enabled: 1
  m_Radius: 0.48
  m_Height: 11.24
  m_Direction: 0
  m_Center: {x: 5, y: 0.27, z: 0}
--- !u!1 &8817367018511314875
GameObject:
  m_ObjectHideFlags: 0
  m_CorrespondingSourceObject: {fileID: 0}
  m_PrefabInstance: {fileID: 0}
  m_PrefabAsset: {fileID: 0}
  serializedVersion: 6
  m_Component:
  - component: {fileID: 8638114658221875777}
  - component: {fileID: 1177562236982645603}
  - component: {fileID: 6380434207077823107}
  m_Layer: 13
  m_Name: PW_Tree_Dead_03_01_LOD2
  m_TagString: PW - Nature
  m_Icon: {fileID: 0}
  m_NavMeshLayer: 0
  m_StaticEditorFlags: 90
  m_IsActive: 1
--- !u!4 &8638114658221875777
Transform:
  m_ObjectHideFlags: 0
  m_CorrespondingSourceObject: {fileID: 0}
  m_PrefabInstance: {fileID: 0}
  m_PrefabAsset: {fileID: 0}
  m_GameObject: {fileID: 8817367018511314875}
  m_LocalRotation: {x: 0, y: -0, z: -0, w: 1}
  m_LocalPosition: {x: -0, y: 0, z: 0}
  m_LocalScale: {x: 1, y: 1, z: 1}
  m_Children: []
  m_Father: {fileID: 5071330078189326275}
  m_RootOrder: 2
  m_LocalEulerAnglesHint: {x: 0, y: 0, z: 0}
--- !u!33 &1177562236982645603
MeshFilter:
  m_ObjectHideFlags: 0
  m_CorrespondingSourceObject: {fileID: 0}
  m_PrefabInstance: {fileID: 0}
  m_PrefabAsset: {fileID: 0}
  m_GameObject: {fileID: 8817367018511314875}
  m_Mesh: {fileID: -3671872256425441804, guid: fdf9d3b1d07952e4eb05e954fc4421c0, type: 3}
--- !u!23 &6380434207077823107
MeshRenderer:
  m_ObjectHideFlags: 0
  m_CorrespondingSourceObject: {fileID: 0}
  m_PrefabInstance: {fileID: 0}
  m_PrefabAsset: {fileID: 0}
  m_GameObject: {fileID: 8817367018511314875}
  m_Enabled: 1
  m_CastShadows: 1
  m_ReceiveShadows: 1
  m_DynamicOccludee: 1
  m_StaticShadowCaster: 0
  m_MotionVectors: 1
  m_LightProbeUsage: 1
  m_ReflectionProbeUsage: 1
  m_RayTracingMode: 2
  m_RayTraceProcedural: 0
  m_RenderingLayerMask: 1
  m_RendererPriority: 0
  m_Materials:
  - {fileID: 2100000, guid: 9414632d105f7f045a15dc582b97f108, type: 2}
  m_StaticBatchInfo:
    firstSubMesh: 0
    subMeshCount: 0
  m_StaticBatchRoot: {fileID: 0}
  m_ProbeAnchor: {fileID: 0}
  m_LightProbeVolumeOverride: {fileID: 0}
  m_ScaleInLightmap: 1
  m_ReceiveGI: 1
  m_PreserveUVs: 0
  m_IgnoreNormalsForChartDetection: 0
  m_ImportantGI: 0
  m_StitchLightmapSeams: 1
  m_SelectedEditorRenderState: 3
  m_MinimumChartSize: 4
  m_AutoUVMaxDistance: 0.5
  m_AutoUVMaxAngle: 89
  m_LightmapParameters: {fileID: 0}
  m_SortingLayerID: 0
  m_SortingLayer: 0
  m_SortingOrder: 0
  m_AdditionalVertexStreams: {fileID: 0}
--- !u!1001 &2712845474487611288
PrefabInstance:
  m_ObjectHideFlags: 0
  serializedVersion: 2
  m_Modification:
    m_TransformParent: {fileID: 5071330078189326275}
    m_Modifications:
    - target: {fileID: 2851179570061805681, guid: f4d24860265fece4c8c48432ab5d7598,
        type: 3}
      propertyPath: m_Layer
      value: 9
      objectReference: {fileID: 0}
    - target: {fileID: 2851179570061805681, guid: f4d24860265fece4c8c48432ab5d7598,
        type: 3}
      propertyPath: m_StaticEditorFlags
      value: 90
      objectReference: {fileID: 0}
    - target: {fileID: 5173402726501585140, guid: f4d24860265fece4c8c48432ab5d7598,
        type: 3}
      propertyPath: m_Layer
      value: 9
      objectReference: {fileID: 0}
    - target: {fileID: 5173402726501585140, guid: f4d24860265fece4c8c48432ab5d7598,
        type: 3}
      propertyPath: m_StaticEditorFlags
      value: 90
      objectReference: {fileID: 0}
    - target: {fileID: 5711946232262533260, guid: f4d24860265fece4c8c48432ab5d7598,
        type: 3}
      propertyPath: m_RootOrder
      value: 6
      objectReference: {fileID: 0}
    - target: {fileID: 5711946232262533260, guid: f4d24860265fece4c8c48432ab5d7598,
        type: 3}
      propertyPath: m_LocalScale.x
      value: 0.50922894
      objectReference: {fileID: 0}
    - target: {fileID: 5711946232262533260, guid: f4d24860265fece4c8c48432ab5d7598,
        type: 3}
      propertyPath: m_LocalScale.y
      value: 0.50922894
      objectReference: {fileID: 0}
    - target: {fileID: 5711946232262533260, guid: f4d24860265fece4c8c48432ab5d7598,
        type: 3}
      propertyPath: m_LocalScale.z
      value: 0.50922894
      objectReference: {fileID: 0}
    - target: {fileID: 5711946232262533260, guid: f4d24860265fece4c8c48432ab5d7598,
        type: 3}
      propertyPath: m_LocalPosition.x
      value: 0.0035
      objectReference: {fileID: 0}
    - target: {fileID: 5711946232262533260, guid: f4d24860265fece4c8c48432ab5d7598,
        type: 3}
      propertyPath: m_LocalPosition.y
      value: 0.0373
      objectReference: {fileID: 0}
    - target: {fileID: 5711946232262533260, guid: f4d24860265fece4c8c48432ab5d7598,
        type: 3}
      propertyPath: m_LocalPosition.z
      value: 0.1896
      objectReference: {fileID: 0}
    - target: {fileID: 5711946232262533260, guid: f4d24860265fece4c8c48432ab5d7598,
        type: 3}
      propertyPath: m_LocalRotation.w
      value: 0.8576271
      objectReference: {fileID: 0}
    - target: {fileID: 5711946232262533260, guid: f4d24860265fece4c8c48432ab5d7598,
        type: 3}
      propertyPath: m_LocalRotation.x
      value: 0.24997114
      objectReference: {fileID: 0}
    - target: {fileID: 5711946232262533260, guid: f4d24860265fece4c8c48432ab5d7598,
        type: 3}
      propertyPath: m_LocalRotation.y
      value: -0.41906056
      objectReference: {fileID: 0}
    - target: {fileID: 5711946232262533260, guid: f4d24860265fece4c8c48432ab5d7598,
        type: 3}
      propertyPath: m_LocalRotation.z
      value: 0.16241473
      objectReference: {fileID: 0}
    - target: {fileID: 5711946232262533260, guid: f4d24860265fece4c8c48432ab5d7598,
        type: 3}
      propertyPath: m_LocalEulerAnglesHint.x
      value: 34.394
      objectReference: {fileID: 0}
    - target: {fileID: 5711946232262533260, guid: f4d24860265fece4c8c48432ab5d7598,
        type: 3}
      propertyPath: m_LocalEulerAnglesHint.y
      value: -50.596
      objectReference: {fileID: 0}
    - target: {fileID: 5711946232262533260, guid: f4d24860265fece4c8c48432ab5d7598,
        type: 3}
      propertyPath: m_LocalEulerAnglesHint.z
      value: 4.802
      objectReference: {fileID: 0}
    - target: {fileID: 8727889272959750815, guid: f4d24860265fece4c8c48432ab5d7598,
        type: 3}
      propertyPath: m_Name
      value: PW_Plant_Mushroom_04 (1)
      objectReference: {fileID: 0}
    - target: {fileID: 8727889272959750815, guid: f4d24860265fece4c8c48432ab5d7598,
        type: 3}
      propertyPath: m_Layer
      value: 13
      objectReference: {fileID: 0}
    - target: {fileID: 8727889272959750815, guid: f4d24860265fece4c8c48432ab5d7598,
        type: 3}
      propertyPath: m_StaticEditorFlags
      value: 90
      objectReference: {fileID: 0}
    - target: {fileID: 9039295144565252370, guid: f4d24860265fece4c8c48432ab5d7598,
        type: 3}
      propertyPath: m_Layer
      value: 9
      objectReference: {fileID: 0}
    - target: {fileID: 9039295144565252370, guid: f4d24860265fece4c8c48432ab5d7598,
        type: 3}
      propertyPath: m_StaticEditorFlags
      value: 90
      objectReference: {fileID: 0}
    m_RemovedComponents: []
  m_SourcePrefab: {fileID: 100100000, guid: f4d24860265fece4c8c48432ab5d7598, type: 3}
--- !u!4 &7701470098870996756 stripped
Transform:
  m_CorrespondingSourceObject: {fileID: 5711946232262533260, guid: f4d24860265fece4c8c48432ab5d7598,
    type: 3}
  m_PrefabInstance: {fileID: 2712845474487611288}
  m_PrefabAsset: {fileID: 0}
--- !u!1001 &3593925052451577654
PrefabInstance:
  m_ObjectHideFlags: 0
  serializedVersion: 2
  m_Modification:
    m_TransformParent: {fileID: 5071330078189326275}
    m_Modifications:
    - target: {fileID: 32972213030964104, guid: c00c27017682fc24d939a8c8479fc115,
        type: 3}
      propertyPath: m_RootOrder
      value: 4
      objectReference: {fileID: 0}
    - target: {fileID: 32972213030964104, guid: c00c27017682fc24d939a8c8479fc115,
        type: 3}
      propertyPath: m_LocalScale.x
      value: 0.66722
      objectReference: {fileID: 0}
    - target: {fileID: 32972213030964104, guid: c00c27017682fc24d939a8c8479fc115,
        type: 3}
      propertyPath: m_LocalScale.y
      value: 0.66722
      objectReference: {fileID: 0}
    - target: {fileID: 32972213030964104, guid: c00c27017682fc24d939a8c8479fc115,
        type: 3}
      propertyPath: m_LocalScale.z
      value: 0.66722
      objectReference: {fileID: 0}
    - target: {fileID: 32972213030964104, guid: c00c27017682fc24d939a8c8479fc115,
        type: 3}
      propertyPath: m_LocalPosition.x
      value: 0.5045
      objectReference: {fileID: 0}
    - target: {fileID: 32972213030964104, guid: c00c27017682fc24d939a8c8479fc115,
        type: 3}
      propertyPath: m_LocalPosition.y
      value: 0.0248
      objectReference: {fileID: 0}
    - target: {fileID: 32972213030964104, guid: c00c27017682fc24d939a8c8479fc115,
        type: 3}
      propertyPath: m_LocalPosition.z
      value: -0.094
      objectReference: {fileID: 0}
    - target: {fileID: 32972213030964104, guid: c00c27017682fc24d939a8c8479fc115,
        type: 3}
      propertyPath: m_LocalRotation.w
      value: 0.994876
      objectReference: {fileID: 0}
    - target: {fileID: 32972213030964104, guid: c00c27017682fc24d939a8c8479fc115,
        type: 3}
      propertyPath: m_LocalRotation.x
      value: -0
      objectReference: {fileID: 0}
    - target: {fileID: 32972213030964104, guid: c00c27017682fc24d939a8c8479fc115,
        type: 3}
      propertyPath: m_LocalRotation.y
      value: -0
      objectReference: {fileID: 0}
    - target: {fileID: 32972213030964104, guid: c00c27017682fc24d939a8c8479fc115,
        type: 3}
      propertyPath: m_LocalRotation.z
      value: -0.101103224
      objectReference: {fileID: 0}
    - target: {fileID: 32972213030964104, guid: c00c27017682fc24d939a8c8479fc115,
        type: 3}
      propertyPath: m_LocalEulerAnglesHint.x
      value: 0
      objectReference: {fileID: 0}
    - target: {fileID: 32972213030964104, guid: c00c27017682fc24d939a8c8479fc115,
        type: 3}
      propertyPath: m_LocalEulerAnglesHint.y
      value: 0
      objectReference: {fileID: 0}
    - target: {fileID: 32972213030964104, guid: c00c27017682fc24d939a8c8479fc115,
        type: 3}
      propertyPath: m_LocalEulerAnglesHint.z
      value: -11.6050005
      objectReference: {fileID: 0}
    - target: {fileID: 1025316608080844541, guid: c00c27017682fc24d939a8c8479fc115,
        type: 3}
      propertyPath: m_Layer
      value: 9
      objectReference: {fileID: 0}
    - target: {fileID: 1025316608080844541, guid: c00c27017682fc24d939a8c8479fc115,
        type: 3}
      propertyPath: m_StaticEditorFlags
      value: 90
      objectReference: {fileID: 0}
    - target: {fileID: 2699012288096760192, guid: c00c27017682fc24d939a8c8479fc115,
        type: 3}
      propertyPath: m_Layer
      value: 9
      objectReference: {fileID: 0}
    - target: {fileID: 2699012288096760192, guid: c00c27017682fc24d939a8c8479fc115,
        type: 3}
      propertyPath: m_StaticEditorFlags
      value: 90
      objectReference: {fileID: 0}
    - target: {fileID: 3904196282817558939, guid: c00c27017682fc24d939a8c8479fc115,
        type: 3}
      propertyPath: m_Name
      value: PW_Plant_Mushroom_08
      objectReference: {fileID: 0}
    - target: {fileID: 3904196282817558939, guid: c00c27017682fc24d939a8c8479fc115,
        type: 3}
      propertyPath: m_Layer
      value: 13
      objectReference: {fileID: 0}
    - target: {fileID: 3904196282817558939, guid: c00c27017682fc24d939a8c8479fc115,
        type: 3}
      propertyPath: m_StaticEditorFlags
      value: 90
      objectReference: {fileID: 0}
    - target: {fileID: 5332307583412907405, guid: c00c27017682fc24d939a8c8479fc115,
        type: 3}
      propertyPath: m_Layer
      value: 9
      objectReference: {fileID: 0}
    - target: {fileID: 5332307583412907405, guid: c00c27017682fc24d939a8c8479fc115,
        type: 3}
      propertyPath: m_StaticEditorFlags
      value: 90
      objectReference: {fileID: 0}
    m_RemovedComponents: []
  m_SourcePrefab: {fileID: 100100000, guid: c00c27017682fc24d939a8c8479fc115, type: 3}
--- !u!4 &3572774827136357566 stripped
Transform:
  m_CorrespondingSourceObject: {fileID: 32972213030964104, guid: c00c27017682fc24d939a8c8479fc115,
    type: 3}
  m_PrefabInstance: {fileID: 3593925052451577654}
  m_PrefabAsset: {fileID: 0}
--- !u!1001 &8144505446757187143
PrefabInstance:
  m_ObjectHideFlags: 0
  serializedVersion: 2
  m_Modification:
    m_TransformParent: {fileID: 5071330078189326275}
    m_Modifications:
    - target: {fileID: 2851179570061805681, guid: f4d24860265fece4c8c48432ab5d7598,
        type: 3}
      propertyPath: m_Layer
      value: 9
      objectReference: {fileID: 0}
    - target: {fileID: 2851179570061805681, guid: f4d24860265fece4c8c48432ab5d7598,
        type: 3}
      propertyPath: m_StaticEditorFlags
      value: 90
      objectReference: {fileID: 0}
    - target: {fileID: 5173402726501585140, guid: f4d24860265fece4c8c48432ab5d7598,
        type: 3}
      propertyPath: m_Layer
      value: 9
      objectReference: {fileID: 0}
    - target: {fileID: 5173402726501585140, guid: f4d24860265fece4c8c48432ab5d7598,
        type: 3}
      propertyPath: m_StaticEditorFlags
      value: 90
      objectReference: {fileID: 0}
    - target: {fileID: 5711946232262533260, guid: f4d24860265fece4c8c48432ab5d7598,
        type: 3}
      propertyPath: m_RootOrder
      value: 5
      objectReference: {fileID: 0}
    - target: {fileID: 5711946232262533260, guid: f4d24860265fece4c8c48432ab5d7598,
        type: 3}
      propertyPath: m_LocalScale.x
      value: 0.76757
      objectReference: {fileID: 0}
    - target: {fileID: 5711946232262533260, guid: f4d24860265fece4c8c48432ab5d7598,
        type: 3}
      propertyPath: m_LocalScale.y
      value: 0.76757
      objectReference: {fileID: 0}
    - target: {fileID: 5711946232262533260, guid: f4d24860265fece4c8c48432ab5d7598,
        type: 3}
      propertyPath: m_LocalScale.z
      value: 0.76757
      objectReference: {fileID: 0}
    - target: {fileID: 5711946232262533260, guid: f4d24860265fece4c8c48432ab5d7598,
        type: 3}
      propertyPath: m_LocalPosition.x
      value: 0.054553702
      objectReference: {fileID: 0}
    - target: {fileID: 5711946232262533260, guid: f4d24860265fece4c8c48432ab5d7598,
        type: 3}
      propertyPath: m_LocalPosition.y
      value: 0.0317
      objectReference: {fileID: 0}
    - target: {fileID: 5711946232262533260, guid: f4d24860265fece4c8c48432ab5d7598,
        type: 3}
      propertyPath: m_LocalPosition.z
      value: 0.2627
      objectReference: {fileID: 0}
    - target: {fileID: 5711946232262533260, guid: f4d24860265fece4c8c48432ab5d7598,
        type: 3}
      propertyPath: m_LocalRotation.w
      value: 0.9906248
      objectReference: {fileID: 0}
    - target: {fileID: 5711946232262533260, guid: f4d24860265fece4c8c48432ab5d7598,
        type: 3}
      propertyPath: m_LocalRotation.x
      value: 0.13661087
      objectReference: {fileID: 0}
    - target: {fileID: 5711946232262533260, guid: f4d24860265fece4c8c48432ab5d7598,
        type: 3}
      propertyPath: m_LocalRotation.y
      value: -0
      objectReference: {fileID: 0}
    - target: {fileID: 5711946232262533260, guid: f4d24860265fece4c8c48432ab5d7598,
        type: 3}
      propertyPath: m_LocalRotation.z
      value: -0
      objectReference: {fileID: 0}
    - target: {fileID: 5711946232262533260, guid: f4d24860265fece4c8c48432ab5d7598,
        type: 3}
      propertyPath: m_LocalEulerAnglesHint.x
      value: 15.704
      objectReference: {fileID: 0}
    - target: {fileID: 5711946232262533260, guid: f4d24860265fece4c8c48432ab5d7598,
        type: 3}
      propertyPath: m_LocalEulerAnglesHint.y
      value: 0
      objectReference: {fileID: 0}
    - target: {fileID: 5711946232262533260, guid: f4d24860265fece4c8c48432ab5d7598,
        type: 3}
      propertyPath: m_LocalEulerAnglesHint.z
      value: 0
      objectReference: {fileID: 0}
    - target: {fileID: 8727889272959750815, guid: f4d24860265fece4c8c48432ab5d7598,
        type: 3}
      propertyPath: m_Name
      value: PW_Plant_Mushroom_04
      objectReference: {fileID: 0}
    - target: {fileID: 8727889272959750815, guid: f4d24860265fece4c8c48432ab5d7598,
        type: 3}
      propertyPath: m_Layer
      value: 13
      objectReference: {fileID: 0}
    - target: {fileID: 8727889272959750815, guid: f4d24860265fece4c8c48432ab5d7598,
        type: 3}
      propertyPath: m_StaticEditorFlags
      value: 90
      objectReference: {fileID: 0}
    - target: {fileID: 9039295144565252370, guid: f4d24860265fece4c8c48432ab5d7598,
        type: 3}
      propertyPath: m_Layer
      value: 9
      objectReference: {fileID: 0}
    - target: {fileID: 9039295144565252370, guid: f4d24860265fece4c8c48432ab5d7598,
        type: 3}
      propertyPath: m_StaticEditorFlags
      value: 90
      objectReference: {fileID: 0}
    m_RemovedComponents: []
  m_SourcePrefab: {fileID: 100100000, guid: f4d24860265fece4c8c48432ab5d7598, type: 3}
--- !u!4 &4486693917476101835 stripped
Transform:
  m_CorrespondingSourceObject: {fileID: 5711946232262533260, guid: f4d24860265fece4c8c48432ab5d7598,
    type: 3}
  m_PrefabInstance: {fileID: 8144505446757187143}
  m_PrefabAsset: {fileID: 0}
