%YAML 1.1
%TAG !u! tag:unity3d.com,2011:
--- !u!1 &1614117052666375464
GameObject:
  m_ObjectHideFlags: 0
  m_CorrespondingSourceObject: {fileID: 0}
  m_PrefabInstance: {fileID: 0}
  m_PrefabAsset: {fileID: 0}
  serializedVersion: 6
  m_Component:
  - component: {fileID: 3314409605302713200}
  - component: {fileID: 79645295606889353}
  - component: {fileID: 7837202019738457115}
  m_Layer: 12
  m_Name: PW_Plants_Fern_Realistic_03_LOD0
  m_TagString: Untagged
  m_Icon: {fileID: 0}
  m_NavMeshLayer: 0
  m_StaticEditorFlags: 82
  m_IsActive: 1
--- !u!4 &3314409605302713200
Transform:
  m_ObjectHideFlags: 0
  m_CorrespondingSourceObject: {fileID: 0}
  m_PrefabInstance: {fileID: 0}
  m_PrefabAsset: {fileID: 0}
  m_GameObject: {fileID: 1614117052666375464}
  m_LocalRotation: {x: 0, y: -0, z: -0, w: 1}
  m_LocalPosition: {x: -0, y: 0, z: 0}
  m_LocalScale: {x: 1, y: 1, z: 1}
  m_Children: []
  m_Father: {fileID: 7114357682817016824}
  m_RootOrder: 1
  m_LocalEulerAnglesHint: {x: 0, y: 0, z: 0}
--- !u!33 &79645295606889353
MeshFilter:
  m_ObjectHideFlags: 0
  m_CorrespondingSourceObject: {fileID: 0}
  m_PrefabInstance: {fileID: 0}
  m_PrefabAsset: {fileID: 0}
  m_GameObject: {fileID: 1614117052666375464}
  m_Mesh: {fileID: 21560993693576280, guid: b2e731fa22fb1b34fa2e2bd97f4880ad, type: 3}
--- !u!23 &7837202019738457115
MeshRenderer:
  m_ObjectHideFlags: 0
  m_CorrespondingSourceObject: {fileID: 0}
  m_PrefabInstance: {fileID: 0}
  m_PrefabAsset: {fileID: 0}
  m_GameObject: {fileID: 1614117052666375464}
  m_Enabled: 1
  m_CastShadows: 1
  m_ReceiveShadows: 1
  m_DynamicOccludee: 1
  m_StaticShadowCaster: 0
  m_MotionVectors: 1
  m_LightProbeUsage: 1
  m_ReflectionProbeUsage: 1
  m_RayTracingMode: 2
  m_RayTraceProcedural: 0
  m_RenderingLayerMask: 1
  m_RendererPriority: 0
  m_Materials:
  - {fileID: 2100000, guid: 551f6438a726a3e458578f571eec2d62, type: 2}
  m_StaticBatchInfo:
    firstSubMesh: 0
    subMeshCount: 0
  m_StaticBatchRoot: {fileID: 0}
  m_ProbeAnchor: {fileID: 0}
  m_LightProbeVolumeOverride: {fileID: 0}
  m_ScaleInLightmap: 1
  m_ReceiveGI: 1
  m_PreserveUVs: 0
  m_IgnoreNormalsForChartDetection: 0
  m_ImportantGI: 0
  m_StitchLightmapSeams: 1
  m_SelectedEditorRenderState: 3
  m_MinimumChartSize: 4
  m_AutoUVMaxDistance: 0.5
  m_AutoUVMaxAngle: 89
  m_LightmapParameters: {fileID: 0}
  m_SortingLayerID: 0
  m_SortingLayer: 0
  m_SortingOrder: 0
  m_AdditionalVertexStreams: {fileID: 0}
--- !u!1 &5905030649909115937
GameObject:
  m_ObjectHideFlags: 0
  m_CorrespondingSourceObject: {fileID: 0}
  m_PrefabInstance: {fileID: 0}
  m_PrefabAsset: {fileID: 0}
  serializedVersion: 6
  m_Component:
  - component: {fileID: 5023576340152898862}
  - component: {fileID: 7970758502335725903}
  - component: {fileID: 7659644533105228932}
  m_Layer: 12
  m_Name: PW_Plant_Fern_Realistic_03_LOD1
  m_TagString: Untagged
  m_Icon: {fileID: 0}
  m_NavMeshLayer: 0
  m_StaticEditorFlags: 82
  m_IsActive: 1
--- !u!4 &5023576340152898862
Transform:
  m_ObjectHideFlags: 0
  m_CorrespondingSourceObject: {fileID: 0}
  m_PrefabInstance: {fileID: 0}
  m_PrefabAsset: {fileID: 0}
  m_GameObject: {fileID: 5905030649909115937}
  m_LocalRotation: {x: 0, y: -0, z: -0, w: 1}
  m_LocalPosition: {x: -0, y: 0, z: 0}
  m_LocalScale: {x: 1, y: 1, z: 1}
  m_Children: []
  m_Father: {fileID: 7114357682817016824}
  m_RootOrder: 0
  m_LocalEulerAnglesHint: {x: 0, y: 0, z: 0}
--- !u!33 &7970758502335725903
MeshFilter:
  m_ObjectHideFlags: 0
  m_CorrespondingSourceObject: {fileID: 0}
  m_PrefabInstance: {fileID: 0}
  m_PrefabAsset: {fileID: 0}
  m_GameObject: {fileID: 5905030649909115937}
  m_Mesh: {fileID: -2212025115790110492, guid: b2e731fa22fb1b34fa2e2bd97f4880ad, type: 3}
--- !u!23 &7659644533105228932
MeshRenderer:
  m_ObjectHideFlags: 0
  m_CorrespondingSourceObject: {fileID: 0}
  m_PrefabInstance: {fileID: 0}
  m_PrefabAsset: {fileID: 0}
  m_GameObject: {fileID: 5905030649909115937}
  m_Enabled: 1
  m_CastShadows: 1
  m_ReceiveShadows: 1
  m_DynamicOccludee: 1
  m_StaticShadowCaster: 0
  m_MotionVectors: 1
  m_LightProbeUsage: 1
  m_ReflectionProbeUsage: 1
  m_RayTracingMode: 2
  m_RayTraceProcedural: 0
  m_RenderingLayerMask: 1
  m_RendererPriority: 0
  m_Materials:
  - {fileID: 2100000, guid: 551f6438a726a3e458578f571eec2d62, type: 2}
  m_StaticBatchInfo:
    firstSubMesh: 0
    subMeshCount: 0
  m_StaticBatchRoot: {fileID: 0}
  m_ProbeAnchor: {fileID: 0}
  m_LightProbeVolumeOverride: {fileID: 0}
  m_ScaleInLightmap: 1
  m_ReceiveGI: 1
  m_PreserveUVs: 0
  m_IgnoreNormalsForChartDetection: 0
  m_ImportantGI: 0
  m_StitchLightmapSeams: 1
  m_SelectedEditorRenderState: 3
  m_MinimumChartSize: 4
  m_AutoUVMaxDistance: 0.5
  m_AutoUVMaxAngle: 89
  m_LightmapParameters: {fileID: 0}
  m_SortingLayerID: 0
  m_SortingLayer: 0
  m_SortingOrder: 0
  m_AdditionalVertexStreams: {fileID: 0}
--- !u!1 &6115922682010128875
GameObject:
  m_ObjectHideFlags: 0
  m_CorrespondingSourceObject: {fileID: 0}
  m_PrefabInstance: {fileID: 0}
  m_PrefabAsset: {fileID: 0}
  serializedVersion: 6
  m_Component:
  - component: {fileID: 7114357682817016824}
  - component: {fileID: 7694637492593177916}
  m_Layer: 12
  m_Name: PW_Plant_Fern_Realistic_03
  m_TagString: PW - Nature
  m_Icon: {fileID: 0}
  m_NavMeshLayer: 0
  m_StaticEditorFlags: 82
  m_IsActive: 1
--- !u!4 &7114357682817016824
Transform:
  m_ObjectHideFlags: 0
  m_CorrespondingSourceObject: {fileID: 0}
  m_PrefabInstance: {fileID: 0}
  m_PrefabAsset: {fileID: 0}
  m_GameObject: {fileID: 6115922682010128875}
  m_LocalRotation: {x: 0, y: -0, z: -0, w: 1}
  m_LocalPosition: {x: -18.32, y: 0.04, z: -10.42}
  m_LocalScale: {x: 1, y: 1, z: 1}
  m_Children:
  - {fileID: 5023576340152898862}
  - {fileID: 3314409605302713200}
  - {fileID: 3518521704363896411}
  m_Father: {fileID: 0}
  m_RootOrder: 0
  m_LocalEulerAnglesHint: {x: 0, y: 0, z: 0}
--- !u!205 &7694637492593177916
LODGroup:
  m_ObjectHideFlags: 0
  m_CorrespondingSourceObject: {fileID: 0}
  m_PrefabInstance: {fileID: 0}
  m_PrefabAsset: {fileID: 0}
  m_GameObject: {fileID: 6115922682010128875}
  serializedVersion: 2
  m_LocalReferencePoint: {x: 0.07187927, y: 0.20783271, z: -0.05692625}
  m_Size: 2.6781368
  m_FadeMode: 0
  m_AnimateCrossFading: 1
  m_LastLODIsBillboard: 0
  m_LODs:
  - screenRelativeHeight: 0.65167296
    fadeTransitionWidth: 0
    renderers:
    - renderer: {fileID: 7837202019738457115}
  - screenRelativeHeight: 0.2890769
    fadeTransitionWidth: 0
    renderers:
    - renderer: {fileID: 7659644533105228932}
  - screenRelativeHeight: 0.016256208
    fadeTransitionWidth: 0
    renderers:
    - renderer: {fileID: 2845254470751431921}
  m_Enabled: 1
--- !u!1001 &5851006933421461025
PrefabInstance:
  m_ObjectHideFlags: 0
  serializedVersion: 2
  m_Modification:
    m_TransformParent: {fileID: 7114357682817016824}
    m_Modifications:
    - target: {fileID: 2935517715038942815, guid: d6c8535dbea61984b988e883eb5c94d9,
        type: 3}
      propertyPath: m_Name
      value: PW_Plant_Fern_Realistic_03_LOD2
      objectReference: {fileID: 0}
    - target: {fileID: 2935517715038942815, guid: d6c8535dbea61984b988e883eb5c94d9,
        type: 3}
      propertyPath: m_Layer
      value: 12
      objectReference: {fileID: 0}
    - target: {fileID: 2935517715038942815, guid: d6c8535dbea61984b988e883eb5c94d9,
        type: 3}
      propertyPath: m_StaticEditorFlags
      value: 82
      objectReference: {fileID: 0}
    - target: {fileID: 7054535973840068730, guid: d6c8535dbea61984b988e883eb5c94d9,
        type: 3}
      propertyPath: m_RootOrder
      value: 2
      objectReference: {fileID: 0}
    - target: {fileID: 7054535973840068730, guid: d6c8535dbea61984b988e883eb5c94d9,
        type: 3}
      propertyPath: m_LocalPosition.x
      value: 0
      objectReference: {fileID: 0}
    - target: {fileID: 7054535973840068730, guid: d6c8535dbea61984b988e883eb5c94d9,
        type: 3}
      propertyPath: m_LocalPosition.y
      value: 0
      objectReference: {fileID: 0}
    - target: {fileID: 7054535973840068730, guid: d6c8535dbea61984b988e883eb5c94d9,
        type: 3}
      propertyPath: m_LocalPosition.z
      value: 0
      objectReference: {fileID: 0}
    - target: {fileID: 7054535973840068730, guid: d6c8535dbea61984b988e883eb5c94d9,
        type: 3}
      propertyPath: m_LocalRotation.w
      value: 1
      objectReference: {fileID: 0}
    - target: {fileID: 7054535973840068730, guid: d6c8535dbea61984b988e883eb5c94d9,
        type: 3}
      propertyPath: m_LocalRotation.x
      value: 0
      objectReference: {fileID: 0}
    - target: {fileID: 7054535973840068730, guid: d6c8535dbea61984b988e883eb5c94d9,
        type: 3}
      propertyPath: m_LocalRotation.y
      value: 0
      objectReference: {fileID: 0}
    - target: {fileID: 7054535973840068730, guid: d6c8535dbea61984b988e883eb5c94d9,
        type: 3}
      propertyPath: m_LocalRotation.z
      value: 0
      objectReference: {fileID: 0}
    - target: {fileID: 7054535973840068730, guid: d6c8535dbea61984b988e883eb5c94d9,
        type: 3}
      propertyPath: m_LocalEulerAnglesHint.x
      value: 0
      objectReference: {fileID: 0}
    - target: {fileID: 7054535973840068730, guid: d6c8535dbea61984b988e883eb5c94d9,
        type: 3}
      propertyPath: m_LocalEulerAnglesHint.y
      value: 0
      objectReference: {fileID: 0}
    - target: {fileID: 7054535973840068730, guid: d6c8535dbea61984b988e883eb5c94d9,
        type: 3}
      propertyPath: m_LocalEulerAnglesHint.z
      value: 0
      objectReference: {fileID: 0}
    m_RemovedComponents: []
  m_SourcePrefab: {fileID: 100100000, guid: d6c8535dbea61984b988e883eb5c94d9, type: 3}
--- !u!4 &3518521704363896411 stripped
Transform:
  m_CorrespondingSourceObject: {fileID: 7054535973840068730, guid: d6c8535dbea61984b988e883eb5c94d9,
    type: 3}
  m_PrefabInstance: {fileID: 5851006933421461025}
  m_PrefabAsset: {fileID: 0}
--- !u!23 &2845254470751431921 stripped
MeshRenderer:
  m_CorrespondingSourceObject: {fileID: 8524940344886043344, guid: d6c8535dbea61984b988e883eb5c94d9,
    type: 3}
  m_PrefabInstance: {fileID: 5851006933421461025}
  m_PrefabAsset: {fileID: 0}
