%YAML 1.1
%TAG !u! tag:unity3d.com,2011:
--- !u!1 &1253842920557205022
GameObject:
  m_ObjectHideFlags: 0
  m_CorrespondingSourceObject: {fileID: 0}
  m_PrefabInstance: {fileID: 0}
  m_PrefabAsset: {fileID: 0}
  serializedVersion: 6
  m_Component:
  - component: {fileID: 2827647755028374541}
  - component: {fileID: 3408745740102513353}
  m_Layer: 12
  m_Name: PW_Flower_Cluster_06
  m_TagString: PW - Nature
  m_Icon: {fileID: 0}
  m_NavMeshLayer: 0
  m_StaticEditorFlags: 82
  m_IsActive: 1
--- !u!4 &2827647755028374541
Transform:
  m_ObjectHideFlags: 0
  m_CorrespondingSourceObject: {fileID: 0}
  m_PrefabInstance: {fileID: 0}
  m_PrefabAsset: {fileID: 0}
  m_GameObject: {fileID: 1253842920557205022}
  m_LocalRotation: {x: 0, y: -0, z: -0, w: 1}
  m_LocalPosition: {x: -13.210351, y: 0.012190138, z: -2.008}
  m_LocalScale: {x: 1, y: 1, z: 1}
  m_Children:
  - {fileID: 4288292480522014540}
  - {fileID: 6458666225826310545}
  - {fileID: 6107544939128180478}
  m_Father: {fileID: 0}
  m_RootOrder: 0
  m_LocalEulerAnglesHint: {x: 0, y: 0, z: 0}
--- !u!205 &3408745740102513353
LODGroup:
  m_ObjectHideFlags: 0
  m_CorrespondingSourceObject: {fileID: 0}
  m_PrefabInstance: {fileID: 0}
  m_PrefabAsset: {fileID: 0}
  m_GameObject: {fileID: 1253842920557205022}
  serializedVersion: 2
  m_LocalReferencePoint: {x: -0.022380978, y: 0.3050919, z: 0.019131899}
  m_Size: 0.6822116
  m_FadeMode: 0
  m_AnimateCrossFading: 1
  m_LastLODIsBillboard: 0
  m_LODs:
  - screenRelativeHeight: 0.59968865
    fadeTransitionWidth: 0
    renderers:
    - renderer: {fileID: 2146685192519774018}
  - screenRelativeHeight: 0.1283164
    fadeTransitionWidth: 0
    renderers:
    - renderer: {fileID: 7886105024193741881}
  - screenRelativeHeight: 0.016690308
    fadeTransitionWidth: 0
    renderers:
    - renderer: {fileID: 8454576258262764242}
  m_Enabled: 1
--- !u!1 &4899912674941930099
GameObject:
  m_ObjectHideFlags: 0
  m_CorrespondingSourceObject: {fileID: 0}
  m_PrefabInstance: {fileID: 0}
  m_PrefabAsset: {fileID: 0}
  serializedVersion: 6
  m_Component:
  - component: {fileID: 6458666225826310545}
  - component: {fileID: 3542341201850478115}
  - component: {fileID: 7886105024193741881}
  m_Layer: 12
  m_Name: PW_Flower_Cluster_06_LOD1
  m_TagString: Untagged
  m_Icon: {fileID: 0}
  m_NavMeshLayer: 0
  m_StaticEditorFlags: 82
  m_IsActive: 1
--- !u!4 &6458666225826310545
Transform:
  m_ObjectHideFlags: 0
  m_CorrespondingSourceObject: {fileID: 0}
  m_PrefabInstance: {fileID: 0}
  m_PrefabAsset: {fileID: 0}
  m_GameObject: {fileID: 4899912674941930099}
  m_LocalRotation: {x: 0, y: -0, z: -0, w: 1}
  m_LocalPosition: {x: -0, y: 0, z: 0}
  m_LocalScale: {x: 1, y: 1, z: 1}
  m_Children: []
  m_Father: {fileID: 2827647755028374541}
  m_RootOrder: 1
  m_LocalEulerAnglesHint: {x: 0, y: 0, z: 0}
--- !u!33 &3542341201850478115
MeshFilter:
  m_ObjectHideFlags: 0
  m_CorrespondingSourceObject: {fileID: 0}
  m_PrefabInstance: {fileID: 0}
  m_PrefabAsset: {fileID: 0}
  m_GameObject: {fileID: 4899912674941930099}
  m_Mesh: {fileID: -3959209072492003721, guid: 08432dc2179cfdb4d94b7745b23b86c3, type: 3}
--- !u!23 &7886105024193741881
MeshRenderer:
  m_ObjectHideFlags: 0
  m_CorrespondingSourceObject: {fileID: 0}
  m_PrefabInstance: {fileID: 0}
  m_PrefabAsset: {fileID: 0}
  m_GameObject: {fileID: 4899912674941930099}
  m_Enabled: 1
  m_CastShadows: 1
  m_ReceiveShadows: 1
  m_DynamicOccludee: 1
  m_StaticShadowCaster: 0
  m_MotionVectors: 1
  m_LightProbeUsage: 1
  m_ReflectionProbeUsage: 1
  m_RayTracingMode: 2
  m_RayTraceProcedural: 0
  m_RenderingLayerMask: 1
  m_RendererPriority: 0
  m_Materials:
  - {fileID: 2100000, guid: 849ab819f28829940a6e1902e2334de4, type: 2}
  m_StaticBatchInfo:
    firstSubMesh: 0
    subMeshCount: 0
  m_StaticBatchRoot: {fileID: 0}
  m_ProbeAnchor: {fileID: 0}
  m_LightProbeVolumeOverride: {fileID: 0}
  m_ScaleInLightmap: 1
  m_ReceiveGI: 1
  m_PreserveUVs: 0
  m_IgnoreNormalsForChartDetection: 0
  m_ImportantGI: 0
  m_StitchLightmapSeams: 1
  m_SelectedEditorRenderState: 3
  m_MinimumChartSize: 4
  m_AutoUVMaxDistance: 0.5
  m_AutoUVMaxAngle: 89
  m_LightmapParameters: {fileID: 0}
  m_SortingLayerID: 0
  m_SortingLayer: 0
  m_SortingOrder: 0
  m_AdditionalVertexStreams: {fileID: 0}
--- !u!1 &7934821061345672644
GameObject:
  m_ObjectHideFlags: 0
  m_CorrespondingSourceObject: {fileID: 0}
  m_PrefabInstance: {fileID: 0}
  m_PrefabAsset: {fileID: 0}
  serializedVersion: 6
  m_Component:
  - component: {fileID: 4288292480522014540}
  - component: {fileID: 1898609325961017055}
  - component: {fileID: 2146685192519774018}
  m_Layer: 12
  m_Name: PW_Flower_Cluster_06_LOD0
  m_TagString: Untagged
  m_Icon: {fileID: 0}
  m_NavMeshLayer: 0
  m_StaticEditorFlags: 82
  m_IsActive: 1
--- !u!4 &4288292480522014540
Transform:
  m_ObjectHideFlags: 0
  m_CorrespondingSourceObject: {fileID: 0}
  m_PrefabInstance: {fileID: 0}
  m_PrefabAsset: {fileID: 0}
  m_GameObject: {fileID: 7934821061345672644}
  m_LocalRotation: {x: 0, y: -0, z: -0, w: 1}
  m_LocalPosition: {x: -0, y: 0, z: 0}
  m_LocalScale: {x: 1, y: 1, z: 1}
  m_Children: []
  m_Father: {fileID: 2827647755028374541}
  m_RootOrder: 0
  m_LocalEulerAnglesHint: {x: 0, y: 0, z: 0}
--- !u!33 &1898609325961017055
MeshFilter:
  m_ObjectHideFlags: 0
  m_CorrespondingSourceObject: {fileID: 0}
  m_PrefabInstance: {fileID: 0}
  m_PrefabAsset: {fileID: 0}
  m_GameObject: {fileID: 7934821061345672644}
  m_Mesh: {fileID: -7971775399066846395, guid: 08432dc2179cfdb4d94b7745b23b86c3, type: 3}
--- !u!23 &2146685192519774018
MeshRenderer:
  m_ObjectHideFlags: 0
  m_CorrespondingSourceObject: {fileID: 0}
  m_PrefabInstance: {fileID: 0}
  m_PrefabAsset: {fileID: 0}
  m_GameObject: {fileID: 7934821061345672644}
  m_Enabled: 1
  m_CastShadows: 1
  m_ReceiveShadows: 1
  m_DynamicOccludee: 1
  m_StaticShadowCaster: 0
  m_MotionVectors: 1
  m_LightProbeUsage: 1
  m_ReflectionProbeUsage: 1
  m_RayTracingMode: 2
  m_RayTraceProcedural: 0
  m_RenderingLayerMask: 1
  m_RendererPriority: 0
  m_Materials:
  - {fileID: 2100000, guid: 849ab819f28829940a6e1902e2334de4, type: 2}
  m_StaticBatchInfo:
    firstSubMesh: 0
    subMeshCount: 0
  m_StaticBatchRoot: {fileID: 0}
  m_ProbeAnchor: {fileID: 0}
  m_LightProbeVolumeOverride: {fileID: 0}
  m_ScaleInLightmap: 1
  m_ReceiveGI: 1
  m_PreserveUVs: 0
  m_IgnoreNormalsForChartDetection: 0
  m_ImportantGI: 0
  m_StitchLightmapSeams: 1
  m_SelectedEditorRenderState: 3
  m_MinimumChartSize: 4
  m_AutoUVMaxDistance: 0.5
  m_AutoUVMaxAngle: 89
  m_LightmapParameters: {fileID: 0}
  m_SortingLayerID: 0
  m_SortingLayer: 0
  m_SortingOrder: 0
  m_AdditionalVertexStreams: {fileID: 0}
--- !u!1001 &8093013881413412159
PrefabInstance:
  m_ObjectHideFlags: 0
  serializedVersion: 2
  m_Modification:
    m_TransformParent: {fileID: 2827647755028374541}
    m_Modifications:
    - target: {fileID: 100872032475866437, guid: dae1e5c79bc495c4eb164eafe2bd7e4b,
        type: 3}
      propertyPath: m_Name
      value: PW_Flower_Cluster_06_LOD2
      objectReference: {fileID: 0}
    - target: {fileID: 100872032475866437, guid: dae1e5c79bc495c4eb164eafe2bd7e4b,
        type: 3}
      propertyPath: m_Layer
      value: 12
      objectReference: {fileID: 0}
    - target: {fileID: 100872032475866437, guid: dae1e5c79bc495c4eb164eafe2bd7e4b,
        type: 3}
      propertyPath: m_StaticEditorFlags
      value: 82
      objectReference: {fileID: 0}
    - target: {fileID: 2635295159856393153, guid: dae1e5c79bc495c4eb164eafe2bd7e4b,
        type: 3}
      propertyPath: m_RootOrder
      value: 2
      objectReference: {fileID: 0}
    - target: {fileID: 2635295159856393153, guid: dae1e5c79bc495c4eb164eafe2bd7e4b,
        type: 3}
      propertyPath: m_LocalPosition.x
      value: 0
      objectReference: {fileID: 0}
    - target: {fileID: 2635295159856393153, guid: dae1e5c79bc495c4eb164eafe2bd7e4b,
        type: 3}
      propertyPath: m_LocalPosition.y
      value: 0
      objectReference: {fileID: 0}
    - target: {fileID: 2635295159856393153, guid: dae1e5c79bc495c4eb164eafe2bd7e4b,
        type: 3}
      propertyPath: m_LocalPosition.z
      value: 0
      objectReference: {fileID: 0}
    - target: {fileID: 2635295159856393153, guid: dae1e5c79bc495c4eb164eafe2bd7e4b,
        type: 3}
      propertyPath: m_LocalRotation.w
      value: 1
      objectReference: {fileID: 0}
    - target: {fileID: 2635295159856393153, guid: dae1e5c79bc495c4eb164eafe2bd7e4b,
        type: 3}
      propertyPath: m_LocalRotation.x
      value: 0
      objectReference: {fileID: 0}
    - target: {fileID: 2635295159856393153, guid: dae1e5c79bc495c4eb164eafe2bd7e4b,
        type: 3}
      propertyPath: m_LocalRotation.y
      value: 0
      objectReference: {fileID: 0}
    - target: {fileID: 2635295159856393153, guid: dae1e5c79bc495c4eb164eafe2bd7e4b,
        type: 3}
      propertyPath: m_LocalRotation.z
      value: 0
      objectReference: {fileID: 0}
    - target: {fileID: 2635295159856393153, guid: dae1e5c79bc495c4eb164eafe2bd7e4b,
        type: 3}
      propertyPath: m_LocalEulerAnglesHint.x
      value: 0
      objectReference: {fileID: 0}
    - target: {fileID: 2635295159856393153, guid: dae1e5c79bc495c4eb164eafe2bd7e4b,
        type: 3}
      propertyPath: m_LocalEulerAnglesHint.y
      value: 0
      objectReference: {fileID: 0}
    - target: {fileID: 2635295159856393153, guid: dae1e5c79bc495c4eb164eafe2bd7e4b,
        type: 3}
      propertyPath: m_LocalEulerAnglesHint.z
      value: 0
      objectReference: {fileID: 0}
    m_RemovedComponents: []
  m_SourcePrefab: {fileID: 100100000, guid: dae1e5c79bc495c4eb164eafe2bd7e4b, type: 3}
--- !u!4 &6107544939128180478 stripped
Transform:
  m_CorrespondingSourceObject: {fileID: 2635295159856393153, guid: dae1e5c79bc495c4eb164eafe2bd7e4b,
    type: 3}
  m_PrefabInstance: {fileID: 8093013881413412159}
  m_PrefabAsset: {fileID: 0}
--- !u!23 &8454576258262764242 stripped
MeshRenderer:
  m_CorrespondingSourceObject: {fileID: 361582572448755693, guid: dae1e5c79bc495c4eb164eafe2bd7e4b,
    type: 3}
  m_PrefabInstance: {fileID: 8093013881413412159}
  m_PrefabAsset: {fileID: 0}
