%YAML 1.1
%TAG !u! tag:unity3d.com,2011:
--- !u!1 &5945683683845967466
GameObject:
  m_ObjectHideFlags: 0
  m_CorrespondingSourceObject: {fileID: 0}
  m_PrefabInstance: {fileID: 0}
  m_PrefabAsset: {fileID: 0}
  serializedVersion: 6
  m_Component:
  - component: {fileID: 7266582291062684793}
  - component: {fileID: 2801341768366862097}
  m_Layer: 12
  m_Name: PW_Plants_Flower_Field_03
  m_TagString: PW - Nature
  m_Icon: {fileID: 0}
  m_NavMeshLayer: 0
  m_StaticEditorFlags: 82
  m_IsActive: 1
--- !u!4 &7266582291062684793
Transform:
  m_ObjectHideFlags: 0
  m_CorrespondingSourceObject: {fileID: 0}
  m_PrefabInstance: {fileID: 0}
  m_PrefabAsset: {fileID: 0}
  m_GameObject: {fileID: 5945683683845967466}
  m_LocalRotation: {x: 0, y: -0, z: -0, w: 1}
  m_LocalPosition: {x: -739.56836, y: 97.597206, z: 60.531372}
  m_LocalScale: {x: 1, y: 1, z: 1}
  m_Children:
  - {fileID: 8855227817849748499}
  - {fileID: 7354081862201019543}
  m_Father: {fileID: 0}
  m_RootOrder: 0
  m_LocalEulerAnglesHint: {x: 0, y: 0, z: 0}
--- !u!205 &2801341768366862097
LODGroup:
  m_ObjectHideFlags: 0
  m_CorrespondingSourceObject: {fileID: 0}
  m_PrefabInstance: {fileID: 0}
  m_PrefabAsset: {fileID: 0}
  m_GameObject: {fileID: 5945683683845967466}
  serializedVersion: 2
  m_LocalReferencePoint: {x: -0.02358377, y: 0.5759756, z: -0.029534668}
  m_Size: 1.1544012
  m_FadeMode: 0
  m_AnimateCrossFading: 0
  m_LastLODIsBillboard: 0
  m_LODs:
  - screenRelativeHeight: 0.15172823
    fadeTransitionWidth: 0
    renderers:
    - renderer: {fileID: 0}
  - screenRelativeHeight: 0.015404183
    fadeTransitionWidth: 0
    renderers:
    - renderer: {fileID: 9142667406552650105}
  m_Enabled: 1
--- !u!1 &6344999897459104832
GameObject:
  m_ObjectHideFlags: 0
  m_CorrespondingSourceObject: {fileID: 0}
  m_PrefabInstance: {fileID: 0}
  m_PrefabAsset: {fileID: 0}
  serializedVersion: 6
  m_Component:
  - component: {fileID: 8855227817849748499}
  - component: {fileID: 4581138819987726418}
  - component: {fileID: 8833494902174313578}
  m_Layer: 12
  m_Name: PW_Plants_Flower_Field_03_LOD0
  m_TagString: PW - Nature
  m_Icon: {fileID: 0}
  m_NavMeshLayer: 0
  m_StaticEditorFlags: 82
  m_IsActive: 1
--- !u!4 &8855227817849748499
Transform:
  m_ObjectHideFlags: 0
  m_CorrespondingSourceObject: {fileID: 0}
  m_PrefabInstance: {fileID: 0}
  m_PrefabAsset: {fileID: 0}
  m_GameObject: {fileID: 6344999897459104832}
  m_LocalRotation: {x: -0, y: -0, z: -0, w: 1}
  m_LocalPosition: {x: 0, y: 0, z: 0}
  m_LocalScale: {x: 1, y: 1, z: 1}
  m_Children: []
  m_Father: {fileID: 7266582291062684793}
  m_RootOrder: 0
  m_LocalEulerAnglesHint: {x: 0, y: 0, z: 0}
--- !u!33 &4581138819987726418
MeshFilter:
  m_ObjectHideFlags: 0
  m_CorrespondingSourceObject: {fileID: 0}
  m_PrefabInstance: {fileID: 0}
  m_PrefabAsset: {fileID: 0}
  m_GameObject: {fileID: 6344999897459104832}
  m_Mesh: {fileID: -5413328275137096362, guid: e3e1af1e4e659ec4cb37888d6af55d6c, type: 3}
--- !u!23 &8833494902174313578
MeshRenderer:
  m_ObjectHideFlags: 0
  m_CorrespondingSourceObject: {fileID: 0}
  m_PrefabInstance: {fileID: 0}
  m_PrefabAsset: {fileID: 0}
  m_GameObject: {fileID: 6344999897459104832}
  m_Enabled: 1
  m_CastShadows: 1
  m_ReceiveShadows: 1
  m_DynamicOccludee: 1
  m_StaticShadowCaster: 0
  m_MotionVectors: 1
  m_LightProbeUsage: 1
  m_ReflectionProbeUsage: 1
  m_RayTracingMode: 2
  m_RayTraceProcedural: 0
  m_RenderingLayerMask: 1
  m_RendererPriority: 0
  m_Materials:
  - {fileID: 2100000, guid: 0e1e9e7d09a0b6049a791d148f2cf92e, type: 2}
  m_StaticBatchInfo:
    firstSubMesh: 0
    subMeshCount: 0
  m_StaticBatchRoot: {fileID: 0}
  m_ProbeAnchor: {fileID: 0}
  m_LightProbeVolumeOverride: {fileID: 0}
  m_ScaleInLightmap: 1
  m_ReceiveGI: 1
  m_PreserveUVs: 0
  m_IgnoreNormalsForChartDetection: 0
  m_ImportantGI: 0
  m_StitchLightmapSeams: 1
  m_SelectedEditorRenderState: 3
  m_MinimumChartSize: 4
  m_AutoUVMaxDistance: 0.5
  m_AutoUVMaxAngle: 89
  m_LightmapParameters: {fileID: 0}
  m_SortingLayerID: 0
  m_SortingLayer: 0
  m_SortingOrder: 0
  m_AdditionalVertexStreams: {fileID: 0}
--- !u!1001 &3829361981782631919
PrefabInstance:
  m_ObjectHideFlags: 0
  serializedVersion: 2
  m_Modification:
    m_TransformParent: {fileID: 7266582291062684793}
    m_Modifications:
    - target: {fileID: 2286712957089665137, guid: 63a5533e2063e7b4094433f3f854709c,
        type: 3}
      propertyPath: m_Name
      value: PW_Plants_Flower_Field_03_LOD1
      objectReference: {fileID: 0}
    - target: {fileID: 2286712957089665137, guid: 63a5533e2063e7b4094433f3f854709c,
        type: 3}
      propertyPath: m_Layer
      value: 12
      objectReference: {fileID: 0}
    - target: {fileID: 2286712957089665137, guid: 63a5533e2063e7b4094433f3f854709c,
        type: 3}
      propertyPath: m_StaticEditorFlags
      value: 82
      objectReference: {fileID: 0}
    - target: {fileID: 5992692493398354296, guid: 63a5533e2063e7b4094433f3f854709c,
        type: 3}
      propertyPath: m_RootOrder
      value: 1
      objectReference: {fileID: 0}
    - target: {fileID: 5992692493398354296, guid: 63a5533e2063e7b4094433f3f854709c,
        type: 3}
      propertyPath: m_LocalPosition.x
      value: 0
      objectReference: {fileID: 0}
    - target: {fileID: 5992692493398354296, guid: 63a5533e2063e7b4094433f3f854709c,
        type: 3}
      propertyPath: m_LocalPosition.y
      value: 0
      objectReference: {fileID: 0}
    - target: {fileID: 5992692493398354296, guid: 63a5533e2063e7b4094433f3f854709c,
        type: 3}
      propertyPath: m_LocalPosition.z
      value: 0
      objectReference: {fileID: 0}
    - target: {fileID: 5992692493398354296, guid: 63a5533e2063e7b4094433f3f854709c,
        type: 3}
      propertyPath: m_LocalRotation.w
      value: 1
      objectReference: {fileID: 0}
    - target: {fileID: 5992692493398354296, guid: 63a5533e2063e7b4094433f3f854709c,
        type: 3}
      propertyPath: m_LocalRotation.x
      value: 0
      objectReference: {fileID: 0}
    - target: {fileID: 5992692493398354296, guid: 63a5533e2063e7b4094433f3f854709c,
        type: 3}
      propertyPath: m_LocalRotation.y
      value: 0
      objectReference: {fileID: 0}
    - target: {fileID: 5992692493398354296, guid: 63a5533e2063e7b4094433f3f854709c,
        type: 3}
      propertyPath: m_LocalRotation.z
      value: 0
      objectReference: {fileID: 0}
    - target: {fileID: 5992692493398354296, guid: 63a5533e2063e7b4094433f3f854709c,
        type: 3}
      propertyPath: m_LocalEulerAnglesHint.x
      value: 0
      objectReference: {fileID: 0}
    - target: {fileID: 5992692493398354296, guid: 63a5533e2063e7b4094433f3f854709c,
        type: 3}
      propertyPath: m_LocalEulerAnglesHint.y
      value: 0
      objectReference: {fileID: 0}
    - target: {fileID: 5992692493398354296, guid: 63a5533e2063e7b4094433f3f854709c,
        type: 3}
      propertyPath: m_LocalEulerAnglesHint.z
      value: 0
      objectReference: {fileID: 0}
    m_RemovedComponents: []
  m_SourcePrefab: {fileID: 100100000, guid: 63a5533e2063e7b4094433f3f854709c, type: 3}
--- !u!4 &7354081862201019543 stripped
Transform:
  m_CorrespondingSourceObject: {fileID: 5992692493398354296, guid: 63a5533e2063e7b4094433f3f854709c,
    type: 3}
  m_PrefabInstance: {fileID: 3829361981782631919}
  m_PrefabAsset: {fileID: 0}
--- !u!23 &9142667406552650105 stripped
MeshRenderer:
  m_CorrespondingSourceObject: {fileID: 5460025209880245398, guid: 63a5533e2063e7b4094433f3f854709c,
    type: 3}
  m_PrefabInstance: {fileID: 3829361981782631919}
  m_PrefabAsset: {fileID: 0}
